M48
;Layer_Color=9474304
;FILE_FORMAT=2:4
INCH,TZ
;TYPE=PLATED
T01F00S00C0.0079
T02F00S00C0.0098
T03F00S00C0.0118
T04F00S00C0.0276
;TYPE=NON_PLATED
T06F00S00C0.0984
%
T01
X18583Y432
X19930Y977
X19871Y2522
X19415Y2525
X19528Y3504
X19646Y4241
X20276Y3622
X20827
X21378
X21701Y3598
X21693Y4093
X21701Y3079
X21848Y2442
X22872
X23128
X23896
X24411Y2569
X24347Y2067
X24488Y1071
X23858
X22881Y557
X23000Y3348
X23500
Y3848
X23000
X22500
Y3348
X22616Y4755
X22872
X23128
X22360
X22104
X21843Y5204
X22165Y5432
X22480
X22882Y5724
X23354
X23837Y5715
X23509Y6141
X24750Y6319
X24397Y4613
X24152Y4755
X24624Y3913
Y3283
X26378Y2087
X26654Y1220
X27244Y531
X18474Y3069
X17982
Y5628
X18474
X20394Y5865
X20217Y6317
X17370Y5717
X16699Y5477
Y5077
X16299
Y5477
Y4677
X16699
X16782Y4094
X16850Y3622
X16705Y2923
Y2523
X16305
Y2923
Y2123
X16705
X16742Y1535
X16811Y1063
X16183Y1517
X15551Y1496
Y1693
Y1890
X15556Y2142
X15634Y2650
Y3162
X15551Y4055
Y4252
Y4449
Y4685
X15628Y5205
X16181Y4055
X17376Y3162
Y2650
X12913Y2402
X12479Y2391
X12173Y2371
X12098Y2174
X11909Y1958
X11594
X11575Y1693
Y1299
X12205
X12165Y1811
X11752Y2293
Y2726
X11419Y2808
X11594Y3061
X11909
X12087Y3031
X12126Y2835
X12480Y2824
X12008Y3465
X11378
X10984Y2557
X8747Y2206
X8747Y2009
X8747Y1813
X2867Y2676
Y3148
X1890
Y2676
X2165Y2244
X2441Y6102
T02
X236Y1821
X866
X1457
Y4002
X866
X236
T03
X5661Y4545
X5348Y5087
X5661Y5629
X6523
X6836Y5087
X6523Y4545
X12944
X12631Y5087
X12944Y5629
X13807
X14120Y5087
X13807Y4545
T04
X26496Y4094
Y4882
Y5669
T06
X827Y5669
M30
